%YAML 1.1
%TAG !u! tag:unity3d.com,2011:
--- !u!1045 &1
EditorBuildSettings:
  m_ObjectHideFlags: 0
  serializedVersion: 2
  m_Scenes:
  - enabled: 1
    path: Assets/Scenes/MainMenu.unity
    guid: 2cda990e2423bbf4892e6590ba056729
  - enabled: 1
    path: Assets/Scenes/Level 1.unity
    guid: 5a2b9fba50bc9e94eb060ab19c39c4fa
  - enabled: 1
    path: Assets/Scenes/Level 2.unity
    guid: 1353d3dc3c489f94b9c5effb45ac1bfb
  - enabled: 1
    path: Assets/Scenes/Level 3.unity
    guid: 5a42997f52acef541805aab71d56787b
  m_configObjects: {}
